%YAML 1.1
%TAG !u! tag:unity3d.com,2011:
--- !u!1001 &6081057757306354768
PrefabInstance:
  m_ObjectHideFlags: 0
  serializedVersion: 2
  m_Modification:
    m_TransformParent: {fileID: 0}
    m_Modifications:
    - target: {fileID: 96054152582528722, guid: ec0baed69a97a124688234e46ed76a93,
        type: 3}
      propertyPath: m_Name
      value: Tower 2
      objectReference: {fileID: 0}
    - target: {fileID: 8450569738282399654, guid: ec0baed69a97a124688234e46ed76a93,
        type: 3}
      propertyPath: m_LocalPosition.x
      value: 0
      objectReference: {fileID: 0}
    - target: {fileID: 8450569738282399654, guid: ec0baed69a97a124688234e46ed76a93,
        type: 3}
      propertyPath: m_LocalPosition.y
      value: 0
      objectReference: {fileID: 0}
    - target: {fileID: 8450569738282399654, guid: ec0baed69a97a124688234e46ed76a93,
        type: 3}
      propertyPath: m_LocalPosition.z
      value: 0
      objectReference: {fileID: 0}
    - target: {fileID: 8450569738282399654, guid: ec0baed69a97a124688234e46ed76a93,
        type: 3}
      propertyPath: m_LocalRotation.x
      value: 0
      objectReference: {fileID: 0}
    - target: {fileID: 8450569738282399654, guid: ec0baed69a97a124688234e46ed76a93,
        type: 3}
      propertyPath: m_LocalRotation.y
      value: 0
      objectReference: {fileID: 0}
    - target: {fileID: 8450569738282399654, guid: ec0baed69a97a124688234e46ed76a93,
        type: 3}
      propertyPath: m_LocalRotation.z
      value: 0
      objectReference: {fileID: 0}
    - target: {fileID: 8450569738282399654, guid: ec0baed69a97a124688234e46ed76a93,
        type: 3}
      propertyPath: m_LocalRotation.w
      value: 1
      objectReference: {fileID: 0}
    - target: {fileID: 8450569738282399654, guid: ec0baed69a97a124688234e46ed76a93,
        type: 3}
      propertyPath: m_RootOrder
      value: 0
      objectReference: {fileID: 0}
    - target: {fileID: 8450569738282399654, guid: ec0baed69a97a124688234e46ed76a93,
        type: 3}
      propertyPath: m_LocalEulerAnglesHint.x
      value: 0
      objectReference: {fileID: 0}
    - target: {fileID: 8450569738282399654, guid: ec0baed69a97a124688234e46ed76a93,
        type: 3}
      propertyPath: m_LocalEulerAnglesHint.y
      value: 0
      objectReference: {fileID: 0}
    - target: {fileID: 8450569738282399654, guid: ec0baed69a97a124688234e46ed76a93,
        type: 3}
      propertyPath: m_LocalEulerAnglesHint.z
      value: 0
      objectReference: {fileID: 0}
    - target: {fileID: 3321351152696970469, guid: ec0baed69a97a124688234e46ed76a93,
        type: 3}
      propertyPath: _shootDistance
      value: 8
      objectReference: {fileID: 0}
    - target: {fileID: 3321351152696970469, guid: ec0baed69a97a124688234e46ed76a93,
        type: 3}
      propertyPath: _shootDelay
      value: 4
      objectReference: {fileID: 0}
    - target: {fileID: 3321351152696970469, guid: ec0baed69a97a124688234e46ed76a93,
        type: 3}
      propertyPath: _bulletSpeed
      value: 4
      objectReference: {fileID: 0}
    - target: {fileID: 3321351152696970469, guid: ec0baed69a97a124688234e46ed76a93,
        type: 3}
      propertyPath: _towerPlace
      value: 
      objectReference: {fileID: 1757347889875814203}
    - target: {fileID: 3321351152696970469, guid: ec0baed69a97a124688234e46ed76a93,
        type: 3}
      propertyPath: _towerHead
      value: 
      objectReference: {fileID: 7641862142229659311}
    - target: {fileID: 3321351152696970469, guid: ec0baed69a97a124688234e46ed76a93,
        type: 3}
      propertyPath: _bulletPrefab
      value: 
      objectReference: {fileID: 3290484091326078813, guid: 6e21285a138fad2489b7a4899c284d3b,
        type: 3}
    m_RemovedComponents: []
  m_SourcePrefab: {fileID: 100100000, guid: ec0baed69a97a124688234e46ed76a93, type: 3}
--- !u!212 &1757347889875814203 stripped
SpriteRenderer:
  m_CorrespondingSourceObject: {fileID: 5478377536091356011, guid: ec0baed69a97a124688234e46ed76a93,
    type: 3}
  m_PrefabInstance: {fileID: 6081057757306354768}
  m_PrefabAsset: {fileID: 0}
--- !u!212 &7641862142229659311 stripped
SpriteRenderer:
  m_CorrespondingSourceObject: {fileID: 4497153117430366975, guid: ec0baed69a97a124688234e46ed76a93,
    type: 3}
  m_PrefabInstance: {fileID: 6081057757306354768}
  m_PrefabAsset: {fileID: 0}
